<svg width="33" height="33" viewBox="0 0 33 33" fill="none" xmlns="http://www.w3.org/2000/svg">
<g clip-path="url(#clip0_1_502)">
<path d="M24.7789 9.52189V20.5219" stroke="#E3D6FF" stroke-width="1.27982" stroke-linecap="round" stroke-linejoin="round"/>
<path d="M13.193 20.1444V19.3125C13.193 16.7081 20.5199 16.7081 20.5199 19.3125V20.3172" stroke="#E3D6FF" stroke-width="1.27982" stroke-linecap="round" stroke-linejoin="round"/>
<path d="M16.8594 15.2957C17.6525 15.2957 18.2954 14.6529 18.2954 13.8598C18.2954 13.0668 17.6525 12.4239 16.8594 12.4239C16.0664 12.4239 15.4235 13.0668 15.4235 13.8598C15.4235 14.6529 16.0664 15.2957 16.8594 15.2957Z" stroke="#E3D6FF" stroke-width="1.27982" stroke-linecap="round" stroke-linejoin="round"/>
<path d="M27.0474 20.5219H6.66954V32.2098H27.0474V20.5219Z" stroke="#A989F5" stroke-width="1.27982" stroke-linecap="round" stroke-linejoin="round"/>
<path d="M23.1596 24.4093H10.5534V28.3255H23.1596V24.4093Z" stroke="#A989F5" stroke-width="1.27982" stroke-linecap="round" stroke-linejoin="round"/>
<path d="M27.0442 6.93346H6.66954V2.84765C7.51102 2.72926 16.7705 -0.134324 27.0442 2.84765V6.93346Z" stroke="#A989F5" stroke-width="1.27982" stroke-linecap="round" stroke-linejoin="round"/>
<path d="M8.93469 9.52189V20.5219" stroke="#A989F5" stroke-width="1.27982" stroke-linecap="round" stroke-linejoin="round"/>
</g>
<defs>
<clipPath id="clip0_1_502">
<rect width="31.9954" height="31.9954" fill="white" transform="translate(0.859375 0.854294)"/>
</clipPath>
</defs>
</svg>
