<svg width="24" height="24" viewBox="0 0 24 24" fill="none" xmlns="http://www.w3.org/2000/svg">
<path d="M9.97212 0.719971C8.04911 1.1842 6.33844 2.28245 5.11585 3.83768C3.89326 5.39291 3.22998 7.31452 3.23292 9.29277C3.23292 15.9192 12.0001 23.52 12.0001 23.52" stroke="#A989F5" stroke-width="0.92" stroke-linecap="round" stroke-linejoin="round"/>
<path d="M13.3714 22.2288C15.841 19.7808 20.7682 14.2632 20.7682 9.29278C20.7739 6.96162 19.8535 4.72363 18.2094 3.07097C16.5653 1.41832 14.3321 0.486337 12.001 0.47998" stroke="#A989F5" stroke-width="0.92" stroke-linecap="round" stroke-linejoin="round"/>
<path d="M12.0006 13.2649C14.1863 13.2649 15.9582 11.4844 15.9582 9.28808C15.9582 7.09175 14.1863 5.31128 12.0006 5.31128C9.81485 5.31128 8.04297 7.09175 8.04297 9.28808C8.04297 11.4844 9.81485 13.2649 12.0006 13.2649Z" stroke="#A989F5" stroke-width="0.92" stroke-linecap="round" stroke-linejoin="round"/>
</svg>
