<svg width="91" height="14" viewBox="0 0 91 14" fill="none" xmlns="http://www.w3.org/2000/svg">
<g clip-path="url(#clip0_126_12277)">
<path d="M4.35188 6.11239H5.28973C6.02661 6.11239 6.56252 5.97841 6.86397 5.71045C7.16543 5.44249 7.2994 5.10755 7.2994 4.70561C7.2994 4.30368 7.16543 3.96873 6.89747 3.70077C6.62951 3.43282 6.16059 3.29884 5.42371 3.29884H4.31838V6.11239H4.35188ZM0.5 0.786743H6.89747C8.30424 0.786743 9.34257 1.12169 10.0125 1.79158C10.7159 2.46147 11.0508 3.39932 11.0508 4.60513C11.0508 5.87792 10.6824 6.84927 9.91198 7.55265C9.14161 8.25604 8.00279 8.62448 6.46204 8.62448H4.35188V13.2467H0.5V0.786743Z" fill="#02AEF6"/>
<path d="M12.4241 0.786743H16.276V10.1652H22.2715V13.2467H12.4241V0.786743Z" fill="#02AEF6"/>
<path d="M30.7457 0.786743H34.5976V8.18905C34.5976 8.92593 34.4971 9.62932 34.2627 10.2657C34.0282 10.9021 33.6598 11.505 33.1908 11.9739C32.6884 12.4764 32.186 12.8113 31.6501 13.0123C30.9132 13.2802 30.0089 13.4142 28.9705 13.4142C28.3676 13.4142 27.6977 13.3807 26.9943 13.2802C26.291 13.1797 25.688 13.0123 25.1856 12.7778C24.7167 12.5099 24.2478 12.1749 23.8793 11.706C23.4774 11.2371 23.2094 10.7681 23.0755 10.2657C22.841 9.46185 22.707 8.75846 22.707 8.15556V0.786743H26.5589V8.39002C26.5589 9.05991 26.7599 9.59582 27.1283 9.96426C27.4968 10.3327 28.0327 10.5337 28.7026 10.5337C29.3725 10.5337 29.8749 10.3327 30.2768 9.96426C30.6453 9.59582 30.8462 9.05991 30.8462 8.35652V0.786743H30.7457Z" fill="#02AEF6"/>
<path d="M35.7029 0.786743H47.3925V3.86825H43.4736V13.2467H39.6218V3.86825H35.7029V0.786743Z" fill="#02AEF6"/>
<path d="M65.848 5.84443H67.4557C67.6232 5.84443 67.9581 5.77744 68.4605 5.67696C68.7285 5.60997 68.9295 5.50948 69.0969 5.27502C69.2644 5.07405 69.3314 4.83959 69.3314 4.53814C69.3314 4.1362 69.1974 3.83475 68.963 3.60029C68.695 3.39932 68.2261 3.26534 67.5227 3.26534H65.848V5.84443ZM61.9961 13.2467V0.786743H68.3936C69.5659 0.786743 70.5037 0.887227 71.1066 1.08819C71.743 1.28916 72.2454 1.6576 72.6139 2.22701C72.9823 2.76292 73.1833 3.46631 73.1833 4.23669C73.1833 4.94007 73.0493 5.50948 72.7479 6.0119C72.4464 6.51432 72.0445 6.91626 71.5421 7.21771C71.2071 7.41867 70.7717 7.58615 70.2023 7.72013C70.6712 7.8876 71.0061 8.02158 71.2071 8.18905C71.3411 8.28953 71.5421 8.524 71.81 8.85894C72.078 9.19389 72.2454 9.46185 72.3459 9.62932L74.2216 13.2467H69.8673L67.8242 9.42835C67.5562 8.92593 67.3217 8.62448 67.1208 8.45701C66.8528 8.25604 66.5179 8.15556 66.1829 8.15556H65.848V13.2132H61.9961V13.2467Z" fill="#02AEF6"/>
<path d="M81.758 8.49043L80.3847 4.00215L79.0114 8.49043H81.758ZM82.5619 11.17H78.2076L77.6047 13.2132H73.6858L78.375 0.753174H82.5619L87.2511 13.2132H83.2318L82.5619 11.17Z" fill="#02AEF6"/>
<path d="M55.9 9.76321C55.4311 10.2991 54.7947 10.5671 53.9908 10.5671C53.187 10.5671 52.5506 10.2991 52.0816 9.72971C49.8375 7.11713 47.5264 6.98315 47.5264 6.98315C47.5264 6.98315 47.5264 6.98315 47.5264 7.01665C47.5264 8.45692 47.8278 9.69622 48.3972 10.6341C48.9666 11.6054 49.7035 12.3088 50.6414 12.7442C51.5457 13.1797 52.718 13.4141 54.1248 13.4141C55.4981 13.4141 56.6704 13.1462 57.5747 12.6437C58.5126 12.1413 59.216 11.4044 59.6849 10.4666C60.1538 9.56224 60.4218 8.38993 60.4218 6.98315H56.5699C56.5364 8.32294 56.3354 9.26079 55.9 9.76321Z" fill="#02AEF6"/>
<path d="M52.0481 4.23661C52.5171 3.70069 53.1535 3.43273 53.9573 3.43273C54.7612 3.43273 55.3976 3.70069 55.8665 4.2701C58.1107 6.88268 60.4218 7.01666 60.4218 7.01666C60.4218 7.01666 60.4218 7.01666 60.4218 6.98316C60.4218 5.54289 60.1203 4.30359 59.5509 3.36575C58.9815 2.3944 58.2446 1.69102 57.3068 1.25559C56.4024 0.820156 55.2301 0.585693 53.8234 0.585693C52.4501 0.585693 51.2778 0.85365 50.3734 1.35607C49.4356 1.85849 48.7322 2.59537 48.2633 3.53322C47.7943 4.43757 47.5264 5.60988 47.5264 7.01666H51.3782C51.3782 5.67687 51.6127 4.77252 52.0481 4.23661Z" fill="#13649A"/>
<path d="M90.5001 12.0074C90.5001 12.7108 89.9642 13.2467 89.2608 13.2467C88.5574 13.2467 88.0215 12.7108 88.0215 12.0074C88.0215 11.3375 88.5909 10.8016 89.2608 10.8016C89.9642 10.8016 90.5001 11.3375 90.5001 12.0074ZM88.3229 12.0074C88.3229 12.5434 88.7249 12.9788 89.2608 12.9788C89.7967 12.9788 90.1986 12.5434 90.1986 12.0074C90.1986 11.4715 89.7967 11.0361 89.2608 11.0361C88.7249 11.0361 88.3229 11.4715 88.3229 12.0074ZM89.0598 12.6438H88.7919V11.438C88.8924 11.4045 89.0598 11.4045 89.2608 11.4045C89.4953 11.4045 89.5957 11.438 89.6962 11.505C89.7632 11.572 89.8302 11.639 89.8302 11.773C89.8302 11.907 89.7297 12.0074 89.5622 12.0409C89.6962 12.0744 89.7632 12.1749 89.7967 12.3424C89.8302 12.5434 89.8637 12.6103 89.8972 12.6438H89.5957C89.5622 12.6103 89.5287 12.4764 89.4953 12.3424C89.4618 12.2084 89.3948 12.1414 89.2273 12.1414H89.0933V12.6438H89.0598ZM89.0933 11.9405H89.2273C89.3948 11.9405 89.4953 11.8735 89.4953 11.773C89.4953 11.6725 89.4283 11.572 89.2273 11.572C89.1603 11.572 89.0933 11.572 89.0598 11.572V11.9405H89.0933Z" fill="#02AEF6"/>
</g>
<defs>
<clipPath id="clip0_126_12277">
<rect width="90" height="12.8954" fill="white" transform="translate(0.5 0.552246)"/>
</clipPath>
</defs>
</svg>
