<svg width="160" height="56" viewBox="0 0 160 56" fill="none" xmlns="http://www.w3.org/2000/svg">
<g clip-path="url(#clip0_179_4204)">
<path d="M75.1654 5.57562L74.9537 8.187H73.895C72.2011 8.187 71.3189 9.56327 71.3189 10.869V16.7622H68.3193V5.57562H71.1777L71.2483 6.98718C71.8482 6.03438 72.9069 5.57562 74.1773 5.57562H75.1654Z" fill="#002856"/>
<path d="M54.2387 16.7271H51.2038V10.8338C51.2038 9.59871 51.098 8.04599 49.3688 8.04599C47.7102 8.04599 47.0397 9.24582 47.0397 10.6574V16.7271H44.0049V5.57577H46.7927L46.8633 6.98733C47.4632 6.03452 48.5924 5.29346 50.2157 5.29346C53.2506 5.29346 54.2034 7.48137 54.2034 9.73986V16.7271H54.2387Z" fill="#002856"/>
<path d="M42.6997 14.1156L42.488 16.6564C41.7469 16.8681 41.1117 16.9034 40.3353 16.9034C37.4769 16.9034 36.6653 15.5977 36.6653 12.9863V2.39966H39.7001V5.54037H42.6997L42.488 8.15176H39.7001V12.7746C39.7001 13.8333 39.9824 14.3979 41.0764 14.3979C41.5352 14.3979 42.0645 14.3626 42.6997 14.1156Z" fill="#002856"/>
<path d="M35.677 5.57562L35.43 8.187H34.6184C32.9245 8.187 32.0776 9.56327 32.0776 10.869V16.7622H29.0427V5.57562H31.9011L31.9717 6.98718C32.5716 6.03438 33.6303 5.57562 34.936 5.57562H35.677Z" fill="#002856"/>
<path d="M15.4201 15.492C13.3734 16.586 11.3266 17.2212 8.60939 17.1506C3.63365 17.0094 0.0341797 13.904 0.0341797 8.64594C0.0341797 3.38788 3.66894 0.0707212 8.64468 0.000143327C11.1502 -0.0704346 13.4087 0.600055 15.1731 2.15277L13.0558 4.3054C11.9618 3.35259 10.3738 2.82326 8.43294 2.89384C5.32752 3.03499 3.42192 5.32877 3.38663 8.46949C3.35134 11.8572 5.43338 14.1863 8.67996 14.2922C10.1974 14.3275 11.2913 14.1157 12.2441 13.6923V10.2339H8.85641L9.06814 7.37553H15.4201V15.492Z" fill="#002856"/>
<path d="M63.9082 9.88089C63.8023 8.46933 62.7436 7.58711 61.2968 7.62239C59.8146 7.69297 58.8618 8.64577 58.6501 9.88089H63.9082ZM66.9077 12.21H58.6148C58.8618 13.6215 59.9911 14.5037 61.3674 14.539C62.7436 14.5743 63.4847 14.1508 64.4728 13.1628L66.449 14.6802C65.0374 16.4093 63.3788 17.0445 61.4379 17.0445C58.0855 17.0445 55.5447 14.6802 55.5447 11.1866C55.5447 7.69297 58.0502 5.32861 61.2968 5.32861C64.8962 5.32861 66.8371 7.51653 66.8371 11.363V12.21H66.9077Z" fill="#002856"/>
<path d="M24.2432 11.8572H23.8197C22.4082 11.8572 19.8674 11.9278 19.9026 13.4099C19.9026 15.5272 24.2432 14.8568 24.2432 12.316V11.8572ZM27.1722 9.42226V16.7271H24.5255L24.4549 15.6331C23.6433 16.6565 22.3023 17.0094 20.9613 17.0094C18.9146 17.0094 16.9737 15.986 16.9384 13.6216C16.8678 9.91631 21.1025 9.634 23.7844 9.634H24.3138V9.52813C24.3138 8.29302 23.5021 7.62253 21.9847 7.62253C20.8907 7.62253 19.7968 8.04599 19.0204 8.82235L17.2913 7.0579C18.8793 5.7875 20.5026 5.29346 22.267 5.29346C25.6194 5.29346 27.1722 6.88146 27.1722 9.42226Z" fill="#002856"/>
<path d="M73.7187 15.3506V14.8213H74.0716C74.248 14.8213 74.4597 14.8566 74.4597 15.0683C74.4597 15.3506 74.248 15.3506 74.0363 15.3506H73.7187ZM73.7187 15.5624H74.0363L74.495 16.3034H74.7773L74.2833 15.5271C74.5303 15.4918 74.7421 15.3506 74.7421 15.033C74.7421 14.6802 74.5303 14.539 74.1421 14.539H73.4716V16.2682H73.7187V15.5624ZM74.0363 16.9386C74.8479 16.9386 75.5537 16.3034 75.5537 15.4212C75.5537 14.5743 74.8479 13.9391 74.0363 13.9391C73.2246 13.9391 72.5188 14.5743 72.5188 15.4212C72.4836 16.3034 73.1893 16.9386 74.0363 16.9386ZM72.8012 15.4565C72.8012 14.7507 73.3305 14.2214 74.0363 14.2214C74.7068 14.2214 75.2714 14.7507 75.2714 15.4565C75.2714 16.1976 74.7421 16.7269 74.0363 16.7269C73.3305 16.6916 72.8012 16.1623 72.8012 15.4565Z" fill="#002856"/>
<path d="M13.8685 36.1006V36.2064C13.8685 40.4411 10.6925 42.0997 6.88134 42.0997H3.63476V50.2162H1.23511V30.2779H6.91663C10.7278 30.2779 13.8685 31.9718 13.8685 36.1006ZM11.4689 36.2417V36.1359C11.4689 33.3127 9.77503 32.2541 7.09307 32.2541H3.67004V40.2294H7.05778C9.91619 40.1941 11.4689 38.8178 11.4689 36.2417Z" fill="#002856"/>
<path d="M14.5391 43.123V42.9113C14.5391 38.5002 17.3622 35.4301 21.3851 35.4301C24.7729 35.4301 27.9489 37.4768 27.9489 42.6996V43.4406H16.974C17.0799 46.7578 18.6679 48.5928 21.6674 48.5928C23.9259 48.5928 25.2316 47.7459 25.5492 46.052H27.8783C27.3842 48.981 24.9493 50.5337 21.6321 50.5337C17.5033 50.4984 14.5391 47.6047 14.5391 43.123ZM21.4204 37.3357C19.056 37.3357 17.468 38.9589 17.0799 41.5703H25.6198C25.3728 38.5355 23.82 37.3357 21.4204 37.3357Z" fill="#002856"/>
<path d="M29.9958 43.123V42.9112C29.9958 38.5001 32.819 35.43 36.8419 35.43C40.2296 35.43 43.4056 37.4768 43.4056 42.6995V43.4406H32.3955C32.5014 46.7577 34.0894 48.5928 37.0889 48.5928C39.3474 48.5928 40.6531 47.7458 40.9707 46.052H43.2998C42.8057 48.9809 40.3708 50.5337 37.0536 50.5337C32.9248 50.4984 29.9958 47.6047 29.9958 43.123ZM36.8419 37.3356C34.4775 37.3356 32.8895 38.9589 32.4661 41.5703H41.006C40.8295 38.5354 39.2415 37.3356 36.8419 37.3356Z" fill="#002856"/>
<path d="M48.6638 38.2534C49.5813 36.5948 50.8517 35.4655 53.4631 35.3597V37.5476C50.5341 37.6888 48.6638 38.6063 48.6638 42.2057V50.2163H46.3347V35.642H48.6638V38.2534Z" fill="#002856"/>
<path d="M63.6259 50.2514H61.1909V30.2779H63.6259V50.2514Z" fill="#40B3E1"/>
<path d="M69.3425 37.9709C70.013 36.5947 71.6363 35.3948 74.0359 35.3948C77.0708 35.3948 79.1881 37.0534 79.1881 41.2881V50.2515H76.859V41.1116C76.859 38.5356 75.7651 37.4063 73.436 37.4063C71.2834 37.4063 69.3425 38.7826 69.3425 41.394V50.2515H67.0134V35.6419H69.3425V37.9709Z" fill="#40B3E1"/>
<path d="M81.0583 45.7698H83.3168C83.4933 47.4989 84.4108 48.5929 86.7752 48.5929C88.9631 48.5929 89.9512 47.8518 89.9512 46.2638C89.9512 44.6758 88.8219 44.2171 86.5281 43.7936C82.7169 43.0878 81.4465 42.0292 81.4465 39.4884C81.4465 36.7711 84.0932 35.3948 86.387 35.3948C88.9984 35.3948 91.2921 36.4535 91.6803 39.6295H89.4571C89.1395 38.0415 88.222 37.3357 86.387 37.3357C84.6931 37.3357 83.6344 38.1827 83.6344 39.4178C83.6344 40.7235 84.3755 41.2528 87.0575 41.7468C90.0923 42.3115 92.2096 42.982 92.2096 46.0874C92.2096 48.7341 90.4099 50.5338 86.8457 50.5338C83.3168 50.4985 81.1995 48.7341 81.0583 45.7698Z" fill="#40B3E1"/>
<path d="M94.363 31.0545C94.363 30.2075 95.0335 29.5018 95.9157 29.5018C96.798 29.5018 97.4685 30.1723 97.4685 31.0192C97.4685 31.8661 96.798 32.5719 95.9157 32.5719C95.0688 32.5719 94.363 31.9014 94.363 31.0545ZM97.1156 50.2517H94.7865V35.642H97.1156V50.2517Z" fill="#40B3E1"/>
<path d="M100.009 51.0984H102.373C102.726 52.7922 104.102 53.6392 106.608 53.6392C109.466 53.6392 111.301 52.2629 111.301 49.1222V47.0049C110.207 48.6987 108.372 49.7221 106.361 49.7574C102.514 49.7574 99.6912 46.8637 99.6912 42.8408V42.629C99.6912 38.6767 102.479 35.3595 106.502 35.3595C108.937 35.3595 110.454 36.524 111.266 37.9709V35.6418H113.56V49.2633C113.524 53.498 110.666 55.5801 106.573 55.5801C102.303 55.6154 100.397 53.5686 100.009 51.0984ZM111.372 42.6996V42.4879C111.372 39.206 109.572 37.3004 106.749 37.3004C103.855 37.3004 102.126 39.453 102.126 42.5232V42.7349C102.126 45.9109 104.173 47.8165 106.643 47.8165C109.325 47.8518 111.372 45.9462 111.372 42.6996Z" fill="#40B3E1"/>
<path d="M119.594 37.9709C120.265 36.5946 121.888 35.3948 124.288 35.3948C127.287 35.3948 129.44 37.0534 129.44 41.288V50.2514H127.111V41.1116C127.111 38.5355 126.017 37.4063 123.688 37.4063C121.535 37.4063 119.594 38.7825 119.594 41.3939V50.2514H117.265V28.6546H119.594V37.9709Z" fill="#40B3E1"/>
<path d="M133.18 46.6167V37.618H131.098V35.6418H133.18V32.3246H135.51V35.6418H138.933V37.618H135.51V46.4049C135.51 47.8165 136.145 48.5223 137.309 48.5223C137.909 48.5223 138.544 48.4164 139.109 48.2047V50.1456C138.474 50.3573 137.803 50.4632 137.133 50.4632C134.451 50.4632 133.18 48.8752 133.18 46.6167Z" fill="#40B3E1"/>
<path d="M140.238 45.7697H142.497C142.673 47.4989 143.591 48.5928 145.92 48.5928C148.143 48.5928 149.096 47.8518 149.096 46.2638C149.096 44.6758 147.967 44.217 145.673 43.7935C141.862 43.0878 140.591 42.0291 140.591 39.4883C140.591 36.771 143.238 35.3948 145.532 35.3948C148.143 35.3948 150.437 36.4534 150.825 39.6294H148.602C148.249 38.0414 147.367 37.3357 145.532 37.3357C143.838 37.3357 142.779 38.1826 142.779 39.4177C142.779 40.7234 143.52 41.2527 146.202 41.7468C149.237 42.3114 151.354 42.9819 151.354 46.0873C151.354 48.734 149.555 50.5337 145.99 50.5337C142.461 50.4984 140.379 48.734 140.238 45.7697Z" fill="#40B3E1"/>
<path d="M153.295 47.1107H155.941V47.64H154.953V50.6396H154.283V47.64H153.295V47.1107Z" fill="#002856"/>
<path d="M158.2 49.5455L159.117 47.1458H160V50.6747H159.329V47.9927L158.27 50.6747H158.059L157 47.9927V50.6747H156.4V47.1458H157.282L158.2 49.5455Z" fill="#002856"/>
</g>
<defs>
<clipPath id="clip0_179_4204">
<rect width="160" height="55.6154" fill="white"/>
</clipPath>
</defs>
</svg>
