<svg width="57" height="64" viewBox="0 0 57 64" fill="none" xmlns="http://www.w3.org/2000/svg">
<path d="M56.9531 18.7968C56.9531 17.7275 56.7252 16.7632 56.2518 15.9568C55.7961 15.1504 55.1123 14.4842 54.2008 13.9583C46.6273 9.593 39.0364 5.2278 31.463 0.862534C29.4118 -0.312064 27.4484 -0.276987 25.4148 0.915111C22.3994 2.6858 7.28767 11.3461 2.79975 13.9583C0.941416 15.0276 0.0473633 16.6756 0.0473633 18.8144V45.1811C0.0473633 46.233 0.275252 47.1621 0.713528 47.9686C1.16938 48.7925 1.87062 49.4938 2.79975 50.0372C7.30524 52.6494 22.3994 61.2922 25.4148 63.0804C27.4484 64.2723 29.4293 64.3248 31.463 63.133C39.0364 58.7502 46.6273 54.4025 54.2008 50.0372C55.1474 49.4938 55.8311 48.81 56.2869 47.9686C56.7252 47.1621 56.9531 46.233 56.9531 45.1811V18.7968Z" fill="#9A4993"/>
<path d="M28.5701 16.1602L0.678223 32.2187C1.13407 33.0427 1.83532 33.7439 2.76445 34.2874C7.26994 36.8995 22.3641 45.5423 25.3795 47.3305C27.4131 48.5227 29.3941 48.5752 31.4277 47.3831C39.0011 43.0003 46.592 38.6526 54.1655 34.2874C55.1121 33.7439 55.7958 33.0602 56.2516 32.2187L28.5701 16.1602Z" fill="#6A1577"/>
<path d="M20.3135 32.5458C21.9439 35.3858 24.9943 37.2967 28.483 37.2967C32.0067 37.2967 35.0746 35.3683 36.6875 32.4932L28.5706 27.7949L20.3135 32.5458Z" fill="#6A1577"/>
<path d="M56.9531 19.0003C56.9531 17.9309 56.7251 16.9667 56.2519 16.1602L28.5703 32.096L56.2869 48.1545C56.7251 47.3481 56.9531 46.4189 56.9531 45.3671V19.0003Z" fill="#813084"/>
<path d="M36.6869 37.0839C35.0741 39.9415 32.0061 41.8875 28.4823 41.8875C24.9761 41.8875 21.9258 39.9765 20.3129 37.1365C19.524 35.7516 19.0682 34.1738 19.0682 32.4732C19.0682 27.2665 23.2756 23.059 28.4823 23.059C31.9535 23.059 34.9864 24.9524 36.6168 27.7574L44.8388 23.024C41.5605 17.379 35.4597 13.5748 28.4648 13.5748C18.0163 13.5748 9.56641 22.0423 9.56641 32.4732C9.56641 35.8918 10.478 39.1176 12.0733 41.8875C15.3341 47.55 21.4699 51.3717 28.4823 51.3717C35.5123 51.3717 41.6482 47.5325 44.9089 41.8349L36.6869 37.0839ZM47.0827 28.0028H45.2069V37.0664H47.0827V28.0028ZM51.2376 28.0028H49.3618V37.0664H51.2376V28.0028Z" fill="white"/>
<path d="M52.7628 29.528H43.6992V31.4039H52.7628V29.528ZM52.7628 33.6653H43.6992V35.5412H52.7628V33.6653Z" fill="white"/>
</svg>
