<svg width="65" height="64" viewBox="0 0 65 64" fill="none" xmlns="http://www.w3.org/2000/svg">
<path d="M34.5948 3.48111C34.5948 3.48111 38.7173 7.67039 30.6717 13.9866C24.2213 19.1066 29.2079 22.0329 30.6717 25.3569C26.8814 21.9662 24.1559 18.9732 26.0167 16.1803C28.7497 12.0598 36.2629 10.0649 34.5948 3.48111ZM32.4671 22.5654C34.3953 24.7597 31.936 26.7546 31.936 26.7546C31.936 26.7546 36.8566 24.2287 34.5961 21.1022C32.5345 18.1099 30.9386 16.6467 39.5834 11.6588C39.5834 11.6588 25.9513 15.0494 32.4685 22.564L32.4671 22.5654Z" fill="#F58219"/>
<path d="M27.3015 35.9944C27.3015 35.9944 25.7723 36.9251 28.3656 37.1913C31.4976 37.5903 33.1534 37.5236 36.6108 36.8591C36.6108 36.8591 37.5415 37.4582 38.8052 37.9233C31.0244 41.2478 21.1833 37.7238 27.3015 35.9944ZM26.304 31.6724C26.304 31.6724 24.6414 32.936 27.2348 33.2015C30.6254 33.5338 33.2862 33.6005 37.8744 32.6705C37.8744 32.6705 38.4736 33.3357 39.4703 33.6679C30.095 36.4608 19.5881 33.9328 26.304 31.6724ZM44.6571 39.253C44.6571 39.253 45.7873 40.1837 43.3934 40.9156C38.9379 42.2453 24.7081 42.645 20.7183 40.9156C19.3226 40.3164 21.982 39.4518 22.846 39.3197C23.7107 39.1202 24.1757 39.1202 24.1757 39.1202C22.6465 38.056 14.0017 41.3146 19.7869 42.2521C35.6794 44.8461 48.7796 41.1219 44.6564 39.2598L44.6571 39.253ZM28.0327 27.1501C28.0327 27.1501 20.7844 28.8795 25.4387 29.4773C27.4336 29.7428 31.3566 29.6768 35.0142 29.4106C38.0065 29.145 41.0057 28.6126 41.0057 28.6126C41.0057 28.6126 39.9415 29.0783 39.2103 29.5433C31.823 31.4735 17.6592 30.6089 21.7158 28.614C25.1745 26.9513 28.0327 27.1501 28.0327 27.1501ZM40.9989 34.3985C48.4474 30.5415 44.9887 26.8179 42.5948 27.2836C41.9956 27.4164 41.7301 27.5491 41.7301 27.5491C41.7301 27.5491 41.9296 27.1501 42.3953 27.0181C47.1163 25.3554 50.8406 32.0053 40.8661 34.5987C40.8661 34.5987 40.9328 34.5312 40.9989 34.3985ZM28.7639 44.904C35.9456 45.3697 46.9175 44.6385 47.1837 41.2465C47.1837 41.2465 46.6527 42.5762 41.2658 43.5736C35.1483 44.7038 27.567 44.5711 23.1122 43.8392C23.1122 43.8392 24.0429 44.6371 28.7646 44.9033L28.7639 44.904Z" fill="#4E7896"/>
<path d="M30.2059 57.3984V50.8826C30.2059 49.22 29.2752 48.0898 26.9473 48.0898C25.6176 48.0898 24.4867 48.422 23.4886 48.821L23.8209 50.0179C24.5521 49.7524 25.4835 49.4869 26.4809 49.4869C27.7446 49.4869 28.3431 50.0179 28.3431 51.0828V51.9475H27.6779C24.486 51.9475 23.0229 53.1444 23.0229 55.0794C23.0229 56.6753 24.0203 57.6053 25.8158 57.6053C26.946 57.6053 27.8107 57.0743 28.6086 56.4084L28.7414 57.4058H30.2052L30.2059 57.3984ZM28.3438 55.2707C27.6786 55.8698 26.948 56.2014 26.2821 56.2014C25.4175 56.2014 24.8864 55.6704 24.8864 54.7376C24.8864 53.8048 25.4175 53.1417 27.5465 53.1417H28.3438V55.2693V55.2707ZM36.4561 57.3984H34.129L31.3361 48.2886H33.331L35.0604 53.8743L35.4593 55.5369C36.324 53.143 36.9885 50.6824 37.2548 48.2886H39.2497C38.7186 51.2809 37.7851 54.5388 36.4561 57.3984ZM47.2286 57.3984V50.8826C47.2286 49.22 46.2978 48.0898 43.97 48.0898C42.6403 48.0898 41.5094 48.422 40.5113 48.821L40.7768 50.0179C41.5748 49.7524 42.5062 49.4869 43.5029 49.4869C44.7666 49.4869 45.3651 50.0179 45.3651 51.0828V51.9475H44.6999C41.508 51.9475 40.0449 53.1444 40.0449 55.0794C40.0449 56.6753 40.9756 57.6053 42.771 57.6053C43.968 57.6053 44.8326 57.0743 45.6306 56.4084L45.7634 57.4058H47.2272L47.2286 57.3984ZM45.3664 55.2707C44.7012 55.8698 43.9707 56.2014 43.3048 56.2014C42.4401 56.2014 41.9091 55.6704 41.9091 54.7376C41.9091 53.8048 42.4401 53.1417 44.5692 53.1417H45.3671V55.2693L45.3664 55.2707ZM20.9633 58.9269C20.4323 59.7248 19.6336 60.3226 18.6362 60.6562L17.7715 59.5921C18.4367 59.1931 19.1012 58.5946 19.3674 58.0629C19.6329 57.5972 19.6997 56.9327 19.6997 55.4028V45.0307H21.6946V55.2707C21.6946 57.3323 21.4951 58.1303 20.9633 58.9282V58.9269Z" fill="#F58219"/>
</svg>
