<svg width="65" height="65" viewBox="0 0 65 65" fill="none" xmlns="http://www.w3.org/2000/svg">
<g clip-path="url(#clip0_117_5328)">
<path d="M13.9399 24.684C13.9399 24.684 50.863 28.3763 50.863 34.5302V19.761C50.863 19.761 50.863 13.6071 13.9399 9.91479V24.684Z" fill="url(#paint0_linear_117_5328)"/>
<path d="M13.9399 44.3764C13.9399 44.3764 50.863 48.0687 50.863 54.2225V39.4533C50.863 39.4533 50.863 33.2994 13.9399 29.6071V44.3764Z" fill="url(#paint1_linear_117_5328)"/>
<path d="M50.863 0.068634V14.8379C50.863 14.8379 50.863 20.9917 13.9399 24.684V9.91479C13.9399 9.91479 50.863 6.22248 50.863 0.068634Z" fill="url(#paint2_linear_117_5328)"/>
<path d="M13.9399 29.6071C13.9399 29.6071 50.863 25.9148 50.863 19.761V34.5302C50.863 34.5302 50.863 40.684 13.9399 44.3764V29.6071Z" fill="url(#paint3_linear_117_5328)"/>
<path d="M13.9399 64.0687V49.2994C13.9399 49.2994 50.863 45.6071 50.863 39.4533V54.2225C50.863 54.2225 50.863 60.3764 13.9399 64.0687Z" fill="url(#paint4_linear_117_5328)"/>
</g>
<defs>
<linearGradient id="paint0_linear_117_5328" x1="14.003" y1="22.1358" x2="50.7961" y2="22.1358" gradientUnits="userSpaceOnUse">
<stop stop-color="#656565"/>
<stop offset="1" stop-color="#010101"/>
</linearGradient>
<linearGradient id="paint1_linear_117_5328" x1="14.003" y1="41.8705" x2="50.7961" y2="41.8705" gradientUnits="userSpaceOnUse">
<stop stop-color="#656565"/>
<stop offset="1" stop-color="#010101"/>
</linearGradient>
<linearGradient id="paint2_linear_117_5328" x1="14.003" y1="12.3891" x2="50.7961" y2="12.3891" gradientUnits="userSpaceOnUse">
<stop stop-color="#9F1C20"/>
<stop offset="1" stop-color="#ED2224"/>
</linearGradient>
<linearGradient id="paint3_linear_117_5328" x1="14.003" y1="32.1327" x2="50.7961" y2="32.1327" gradientUnits="userSpaceOnUse">
<stop stop-color="#9F1C20"/>
<stop offset="1" stop-color="#ED2224"/>
</linearGradient>
<linearGradient id="paint4_linear_117_5328" x1="14.003" y1="51.8693" x2="50.7961" y2="51.8693" gradientUnits="userSpaceOnUse">
<stop stop-color="#9F1C20"/>
<stop offset="1" stop-color="#ED2224"/>
</linearGradient>
<clipPath id="clip0_117_5328">
<rect width="64" height="64" fill="white" transform="translate(0.5 0.0686646)"/>
</clipPath>
</defs>
</svg>
